…
visits <- data.frame(block = 1, visit = seq(1, 200, by = 0.1))

sim_data <- simulate_life_history(
  object = simulation_input,
  event = "all",
  use_censoring = TRUE,
  visits = visits
)
#> [1] "Maturity correspond to first clutch as arguement matclutch is true in the Lifehood object provided"
sim_data
#> # A tibble: 400 × 185
#>    geno  block   sex sex_start sex_end mortality mortality_start mortality_end
#>    <fct> <dbl> <dbl>     <dbl>   <dbl>     <dbl>           <dbl>         <dbl>
#>  1 0         1     0       990    1000      225.            200            NA 
#>  2 0         1     0       990    1000      255.            200            NA 
#>  3 0         1     0       990    1000      112.            112.          112.
#>  4 0         1     0       990    1000      282.            200            NA 
#>  5 0         1     0       990    1000      316.            200            NA 
#>  6 0         1     0       990    1000      232.            200            NA 
#>  7 0         1     0       990    1000      119.            119.          119.
#>  8 0         1     0       990    1000      336.            200            NA 
#>  9 0         1     0       990    1000      298.            200            NA 
#> 10 0         1     0       990    1000      178.            178.          178.
#> # ℹ 390 more rows
#> # ℹ 177 more variables: maturity <dbl>, maturity_start <dbl>,
#> #   maturity_end <dbl>, first_clutch_size <int>, clutch_2 <dbl>,
#> #   clutch_start_2 <dbl>, clutch_end_2 <dbl>, clutch_size_2 <int>,
#> #   clutch_3 <dbl>, clutch_start_3 <dbl>, clutch_end_3 <dbl>,
#> #   clutch_size_3 <int>, clutch_4 <dbl>, clutch_start_4 <dbl>,
#> #   clutch_end_4 <dbl>, clutch_size_4 <int>, clutch_5 <dbl>, …
…
sim_data
#> # A tibble: 80 × 151
#>    geno  block   sex sex_start sex_end total_n_offspring maturity_start
#>    <fct> <dbl> <dbl>     <dbl>   <dbl>             <dbl>          <dbl>
#>  1 0         1     0       990    1000               190          13.5 
#>  2 0         1     0       990    1000               167          10.0 
#>  3 0         1     0       990    1000                51          11.5 
#>  4 0         1     0       990    1000               159          11.5 
#>  5 0         1     0       990    1000                67          10.6 
#>  6 0         1     0       990    1000                71          11.8 
#>  7 0         1     0       990    1000               199          13.3 
#>  8 0         1     0       990    1000               226          14.0 
#>  9 0         1     0       990    1000               103           7.95
#> 10 0         1     0       990    1000                85          17.6 
#> # ℹ 70 more rows
#> # ℹ 144 more variables: maturity_end <dbl>, clutch_start_1 <dbl>,
#> #   clutch_end_1 <dbl>, clutch_size_1 <int>, clutch_start_2 <dbl>,
#> #   clutch_end_2 <dbl>, clutch_size_2 <int>, clutch_start_3 <dbl>,
#> #   clutch_end_3 <dbl>, clutch_size_3 <int>, clutch_start_4 <dbl>,
#> #   clutch_end_4 <dbl>, clutch_size_4 <int>, clutch_start_5 <dbl>,
#> #   clutch_end_5 <dbl>, clutch_size_5 <int>, clutch_start_6 <dbl>, …
…
