Reproduction survival tradeoff • lifelihood
…
visits <- data.frame(block = 1, visit = seq(1, 200, by = 0.1))

sim_data <- simulate_life_history(
  object = simulation_input,
  event = "all",
  use_censoring = TRUE,
  visits = visits
)
#> [1] "Maturity correspond to first clutch as arguement matclutch is true in the Lifehood object provided"
sim_data
#> # A tibble: 400 × 194
#>    geno    sex sex_start sex_end mortality mortality_start mortality_end
#>    <fct> <dbl>     <dbl>   <dbl>     <dbl>           <dbl>         <dbl>
#>  1 0         0       990    1000      248.            200            NA 
#>  2 0         0       990    1000      246.            200            NA 
#>  3 0         0       990    1000      334.            200            NA 
#>  4 0         0       990    1000      270.            200            NA 
#>  5 0         0       990    1000      325.            200            NA 
#>  6 0         0       990    1000      201.            200            NA 
#>  7 0         0       990    1000      346.            200            NA 
#>  8 0         0       990    1000      263.            200            NA 
#>  9 0         0       990    1000      225.            200            NA 
#> 10 0         0       990    1000      167.            166.          167.
#> # ℹ 390 more rows
#> # ℹ 187 more variables: maturity <dbl>, first_clutch_size <int>,
#> #   clutch_2 <dbl>, clutch_size_2 <int>, clutch_3 <dbl>, clutch_size_3 <int>,
#> #   clutch_4 <dbl>, clutch_size_4 <int>, clutch_5 <dbl>, clutch_size_5 <int>,
#> #   clutch_6 <dbl>, clutch_size_6 <int>, clutch_7 <dbl>, clutch_size_7 <int>,
#> #   clutch_8 <dbl>, clutch_size_8 <int>, clutch_9 <dbl>, clutch_size_9 <int>,
#> #   clutch_10 <dbl>, clutch_size_10 <int>, clutch_11 <dbl>, …
…
